<svg xmlns="http://www.w3.org/2000/svg" width="20" height="20" viewBox="0 0 20 20">
  <g fill="none" fill-rule="evenodd">
    <path d="M-5-5h30v30H-5z"/>
    <path fill="#A5A7A9" d="M10.683 20h-9.58C.493 20 0 19.506 0 18.896V1.104C0 .494.494 0 1.104 0h17.792C19.506 0 20 .494 20 1.104v17.792c0 .61-.494 1.104-1.104 1.104H13.8v-7.745h2.6l.39-3.02H13.8V7.31c0-.874.242-1.47 1.496-1.47h1.598v-2.7c-.277-.037-1.225-.12-2.33-.12-2.304 0-3.88 1.407-3.88 3.99v2.226h-2.61v3.02h2.608V20z"/>
  </g>
</svg>
